<svg width="140" height="140" viewBox="0 0 140 140" fill="none" xmlns="http://www.w3.org/2000/svg">
<path d="M62.4913 0L0 62.0069L42.1453 140L127.405 126.436L140 39.2388L62.4913 0Z" fill="#0C679F"/>
<path d="M58.2122 65.6616L57.9626 65.6475L57.9652 65.5999C58.0244 64.5012 57.7222 63.414 57.1073 62.5076L57.1073 62.5075C55.1892 59.6781 55.1892 55.9472 57.1073 53.1171L57.1074 53.1169C57.7227 52.2109 58.0242 51.124 57.966 50.0254C57.9659 50.0251 57.9659 50.0248 57.9659 50.0246L57.9633 49.9807L57.9632 49.9799C57.772 46.6032 59.6425 43.4437 62.7225 41.93L62.7243 41.9292L62.7243 41.9292L62.7526 41.9156C63.7599 41.4282 64.5857 40.6247 65.1072 39.6238L65.1091 39.6202L65.1092 39.6202L65.1197 39.6007C66.6738 36.6104 69.8876 34.7993 73.3018 34.9823L73.3021 34.9823L73.3525 34.9851L73.353 34.9851C74.5058 35.0504 75.6503 34.7497 76.6261 34.1249L76.6273 34.1242C79.5029 32.3049 83.148 32.292 86.0346 34.0855H86.0373L86.099 34.125C87.0741 34.7504 88.2185 35.0511 89.3706 34.9858L89.3712 34.9858L89.4224 34.983L89.4226 34.983C92.8367 34.8021 96.0519 36.6118 97.6063 39.6041L97.6076 39.6066L97.6216 39.6344C97.6219 39.635 97.6222 39.6356 97.6225 39.6361C98.144 40.6316 98.9668 41.4297 99.9703 41.9148L99.9743 41.9168L99.9743 41.9168L99.999 41.9293C99.9994 41.9295 99.9998 41.9297 100 41.9299C103.082 43.4451 104.952 46.6035 104.761 49.9798C104.761 49.9799 104.761 49.9799 104.761 49.9799L104.758 50.0273L104.758 50.0281C104.7 51.1265 105.003 52.2128 105.618 53.119L105.618 53.1192C107.535 55.9492 107.535 59.6795 105.617 62.5089L105.617 62.509C105.002 63.4157 104.7 64.5026 104.758 65.6011C104.758 65.6014 104.758 65.6018 104.758 65.6021L104.761 65.646L104.761 65.6468C104.952 69.0231 103.082 72.1815 100.003 73.696C100.003 73.6962 100.002 73.6964 100.002 73.6966L99.9798 73.7078L99.9757 73.7098L99.9756 73.7098C98.9678 74.1965 98.1415 74.999 97.6185 75.9987L97.6132 76.0101L97.6092 76.0185L97.609 76.0184C96.052 79.0154 92.8369 80.8274 89.4225 80.6443L89.4222 80.6443L89.3717 80.6416L89.3713 80.6415C88.2185 80.5763 87.0741 80.8769 86.0983 81.5024L86.097 81.5032C83.2009 83.3354 79.5241 83.3354 76.6279 81.5032L76.6267 81.5024C75.6509 80.8769 74.5064 80.5763 73.3537 80.6415L73.3532 80.6416L73.3028 80.6443L73.3024 80.6444C69.8834 80.826 66.6729 79.0162 65.1188 76.0249C65.1186 76.0243 65.1183 76.0238 65.118 76.0232L65.1075 76.0039L65.1059 76.0009C64.5851 75.0019 63.7599 74.1992 62.7539 73.7125L62.752 73.7115L62.7219 73.6966L58.2122 65.6616ZM58.2122 65.6616L57.9626 65.6475C57.772 69.0233 59.6416 72.1826 62.7213 73.6964L58.2122 65.6616ZM61.2531 49.8379L61.2531 49.8386C61.3501 51.6463 60.8618 53.4363 59.8626 54.9376V54.9396L59.8195 55.0032C58.6709 56.6955 58.6701 58.929 59.8174 60.6228L61.2531 49.8379ZM61.2531 49.8379L61.2505 49.7924C61.2505 49.792 61.2505 49.7915 61.2505 49.791C61.1573 47.7214 62.3062 45.8011 64.1577 44.9229L64.1577 44.9229M61.2531 49.8379L64.1577 44.9229M64.1577 44.9229L64.1608 44.9214M64.1577 44.9229L64.1608 44.9214M64.1608 44.9214L64.1834 44.9103C64.1836 44.9102 64.1838 44.9101 64.184 44.91C65.8272 44.114 67.172 42.8038 68.0202 41.1747L68.0202 41.1747M64.1608 44.9214L68.0202 41.1747M68.0202 41.1747L68.0339 41.1485L68.034 41.1483M68.0202 41.1747L68.034 41.1483M68.034 41.1483C68.9886 39.3092 70.9924 38.1886 73.1264 38.3036L73.1293 38.3037M68.034 41.1483L73.1293 38.3037M73.1293 38.3037L73.1747 38.3056C73.1753 38.3056 73.1759 38.3056 73.1765 38.3057C75.0113 38.4096 76.8318 37.9312 78.3836 36.9366C80.206 35.7839 82.5178 35.784 84.3402 36.9367C85.8923 37.9301 87.7134 38.4092 89.548 38.3063L89.534 38.0567L89.5481 38.3063L89.5963 38.3036C89.5965 38.3035 89.5966 38.3035 89.5967 38.3035C91.7417 38.19 93.7351 39.3094 94.6869 41.1427L94.6873 41.1435M73.1293 38.3037L94.6873 41.1435M94.6873 41.1435L94.7055 41.1783L94.6873 41.1435ZM98.5607 44.92L98.5582 44.9188L98.5388 44.9089C98.5382 44.9086 98.5375 44.9083 98.5368 44.908C96.8965 44.1126 95.5536 42.805 94.7057 41.1787L98.5607 44.92ZM98.5607 44.92C100.449 45.8485 101.589 47.7615 101.474 49.7903L101.474 49.7909M98.5607 44.92L101.474 49.7909M101.474 49.7909L101.471 49.8412L101.471 49.8413M101.474 49.7909L101.471 49.8413M101.471 49.8413C101.373 51.6749 101.877 53.4895 102.905 55.0037C104.053 56.6975 104.053 58.9311 102.904 60.6242L103.111 60.7646L102.904 60.6242C101.877 62.1392 101.373 63.9545 101.471 65.7881L101.471 65.789M101.471 49.8413L101.471 65.789M101.471 65.789L101.474 65.8364M101.471 65.789L101.474 65.8364M98.5408 70.7171L98.5432 70.7159L98.56 70.7081C98.5605 70.7078 98.5611 70.7075 98.5616 70.7072C100.449 69.7778 101.589 67.8647 101.474 65.8366L101.474 65.8364M98.5408 70.7171L101.724 65.8223L101.474 65.8364M98.5408 70.7171C96.896 71.5145 95.5496 72.8261 94.7006 74.4582L94.7006 74.4582M98.5408 70.7171L94.7006 74.4582M94.7006 74.4582L94.6983 74.4628M94.7006 74.4582L94.6983 74.4628M94.6983 74.4628L94.6903 74.479C94.6899 74.4798 94.6895 74.4806 94.6891 74.4813C93.7334 76.319 91.7341 77.4391 89.598 77.3239L89.5973 77.3238L89.5496 77.3211L89.5495 77.3211M94.6983 74.4628L89.5495 77.3211M89.5495 77.3211C87.7139 77.2174 85.892 77.6967 84.339 78.691C82.5174 79.8427 80.206 79.8427 78.3844 78.6909L89.5495 77.3211ZM73.1293 77.3229L73.1293 77.323L73.1747 77.3211C73.1754 77.3211 73.176 77.321 73.1766 77.321C73.3392 77.3118 73.5014 77.3076 73.6625 77.3076C73.6626 77.3076 73.6627 77.3076 73.6628 77.3076V77.5576L73.1293 77.3229ZM73.1293 77.3229L73.1238 77.3233M73.1293 77.3229L73.1238 77.3233M73.1238 77.3233C71.0238 77.4583 69.0353 76.3467 68.0304 74.4727L68.0175 74.4485C68.0173 74.4481 68.0171 74.4478 68.0169 74.4474C67.1703 72.8219 65.8282 71.5153 64.1888 70.7201C64.1881 70.7198 64.1875 70.7195 64.1868 70.7191L64.1647 70.7079L64.1622 70.7066M73.1238 77.3233L64.1622 70.7066M64.1622 70.7066C62.2735 69.7782 61.1336 67.8645 61.249 65.8365L61.249 65.8358M64.1622 70.7066L61.249 65.8358M61.249 65.8358L61.2518 65.7855L61.2518 65.7852M61.249 65.8358L61.2518 65.7852M61.2518 65.7852C61.3494 63.9518 60.845 62.1365 59.8175 60.623L61.2518 65.7852Z" fill="white" stroke="white" stroke-width="0.5"/>
<path d="M74.4884 72.0954L74.4885 72.0954L91.0287 45.2945C91.0289 45.2942 91.0291 45.2938 91.0293 45.2935C91.3461 44.7902 91.3724 44.1538 91.0968 43.6261C90.8208 43.0972 90.2841 42.7584 89.6913 42.7396C89.0986 42.7209 88.5427 43.0254 88.2345 43.5351C88.2343 43.5354 88.2341 43.5358 88.2339 43.5362L71.6944 70.337L71.6943 70.337C71.2146 71.1146 71.4474 72.1388 72.2188 72.6257C72.9915 73.1139 74.0077 72.8738 74.4884 72.0954Z" fill="white" stroke="white" stroke-width="0.5"/>
<path d="M73.8346 58.1333C77.4051 58.1333 80.2516 54.7958 80.2516 50.7705C80.2516 46.7452 77.4051 43.4084 73.8346 43.4084C70.264 43.4084 67.4182 46.7453 67.4182 50.7705C67.4182 54.7958 70.264 58.1333 73.8346 58.1333ZM73.8346 46.7331C75.5047 46.7331 76.9589 48.4855 76.9589 50.7705C76.9589 53.0556 75.5046 54.8086 73.8346 54.8086C72.1652 54.8086 70.711 53.055 70.711 50.7705C70.711 48.4861 72.1652 46.7331 73.8346 46.7331Z" fill="white" stroke="white" stroke-width="0.5"/>
<path d="M82.4727 64.8582C82.4727 68.8835 85.3185 72.2203 88.889 72.2203C92.4596 72.2203 95.306 68.8828 95.306 64.8582C95.306 60.8343 92.4603 57.4961 88.8897 57.4961C85.3185 57.4961 82.4727 60.8322 82.4727 64.8582ZM92.0133 64.8582C92.0133 67.1432 90.5592 68.8956 88.889 68.8956C87.2196 68.8956 85.7654 67.1433 85.7654 64.8582C85.7654 62.5731 87.2196 60.8208 88.889 60.8208C90.5592 60.8208 92.0133 62.5718 92.0133 64.8582Z" fill="white" stroke="white" stroke-width="0.5"/>
<path d="M50.3256 83.038C55.6099 80.3913 61.8364 80.4492 67.0799 83.2146C67.08 83.2147 67.08 83.2147 67.0801 83.2148L68.1136 83.7567C68.1137 83.7567 68.1138 83.7568 68.114 83.7569C69.5116 84.4866 71.0537 84.89 72.6251 84.9354L82.7901 85.2188L82.7903 85.2188C86.0113 85.3108 88.9437 87.0964 90.5349 89.9143L101.328 84.7548C101.328 84.7544 101.329 84.7539 101.33 84.7534C104.838 82.9702 109.11 84.2901 111.036 87.7479C111.466 88.5163 111.23 89.4924 110.494 89.9733L50.3256 83.038ZM50.3256 83.038L50.3786 81.0898L50.3786 81.0897C50.392 80.5968 50.1451 80.2298 49.7957 79.9941C49.4547 79.7641 49.0136 79.6545 48.5918 79.6428L48.5918 79.6427L48.5849 79.6427L37.5147 79.6427C37.1376 79.6323 36.7176 79.6273 36.3885 79.7458C36.2156 79.808 36.0538 79.9085 35.9353 80.0702C35.8167 80.2321 35.7577 80.4331 35.7513 80.6678L35.7512 80.6678V80.6746L35.7512 105.672C35.7404 106.086 35.7995 106.51 35.9879 106.843C36.1861 107.194 36.5209 107.429 37.001 107.442L37.001 107.442L37.0074 107.442L48.0114 107.467H48.0119H48.0511H48.0513C48.9504 107.466 49.681 106.742 49.706 105.84L49.706 105.84L49.7337 104.8L52.5026 103.3L52.503 103.3C53.5822 102.712 54.844 102.573 56.0225 102.91L56.023 102.91L73.3116 107.82C73.3122 107.82 73.3128 107.82 73.3134 107.821C73.3522 107.832 73.3894 107.841 73.4196 107.847L73.4227 107.848C74.6897 108.116 75.9809 108.251 77.2756 108.25M50.3256 83.038L110.494 89.9734L85.4219 106.383L85.4212 106.384C85.3552 106.427 85.2863 106.464 85.2155 106.497C82.7248 107.654 80.0162 108.251 77.2756 108.25M77.2756 108.25C77.2756 108.25 77.2755 108.25 77.2755 108.25L77.2756 108L77.2758 108.25C77.2757 108.25 77.2757 108.25 77.2756 108.25ZM65.5543 86.1825L65.5538 86.1822C60.679 83.6123 54.8166 83.9066 50.22 86.9445L49.8386 100.948L50.9372 100.353C50.9373 100.353 50.9373 100.353 50.9373 100.353L50.9376 100.353L51.0567 100.572L65.5543 86.1825ZM65.5543 86.1825L66.5886 86.7249L66.589 86.725C68.4303 87.687 70.462 88.2183 72.5337 88.2784L72.534 88.2784L82.699 88.5618C85.3316 88.638 87.5856 90.4652 88.2493 93.0234L73.4313 92.6109L73.4244 92.8608L73.4313 92.6109C72.5141 92.5855 71.756 93.316 71.731 94.2368C71.7061 95.1573 72.4234 95.9292 73.3406 95.9546L90.0504 96.4199L90.0504 96.42H90.0574H90.0972H90.0974C90.9959 96.4192 91.7264 95.6955 91.7514 94.7935C91.7673 94.222 91.7306 93.65 91.6429 93.0859L102.766 87.7673L102.767 87.7667L102.8 87.7507L102.8 87.7507L102.805 87.7482C104.217 87.0247 105.906 87.2049 107.134 88.1854L83.7226 103.509C80.7243 104.873 77.3778 105.25 74.1565 104.585L56.9199 99.6911L65.5543 86.1825Z" fill="white" stroke="white" stroke-width="0.5"/>
</svg>
